Organisation,Detail,Location,Date,Image_Link,Mission_Status,Rocket_Status,Price,Country,country_code,Mission_Status_Binary,YEAR_LAUNCH
CASC,Long March 3B/E | ZHTW 1-01,"LC-2, Xichang Satellite Launch Center, China",2024-05-09 01:43:00,https://storage.googleapis.com/nextspaceflight/media/rockets/Long_March_3BE.webp,Success,Active,29.15,China,CHN,Success,2024
SpaceX,Falcon 9 Block 5 | Starlink Group 6-56,"LC-39A, Kennedy Space Center, Florida, USA",2024-05-08 18:42:00,https://storage.googleapis.com/nextspaceflight/media/rockets/Falcon_9_Block_5.webp,Success,Active,67.0,USA,USA,Success,2024
CASC,Long March 6C | Maiden Flight,"LC-9A, Taiyuan Satellite Launch Center, China",2024-05-07 03:21:00,https://storage.googleapis.com/nextspaceflight/media/rockets/Long_March_6C.webp,Success,Active,,China,CHN,Success,2024
SpaceX,Falcon 9 Block 5 | Starlink Group 6-57,"SLC-40, Cape Canaveral SFS, Florida, USA",2024-05-06 18:14:00,https://storage.googleapis.com/nextspaceflight/media/rockets/Falcon_9_Block_5.webp,Success,Active,67.0,USA,USA,Success,2024
CASC,Long March 5 | Chang'e 6,"LC-101, Wenchang Space Launch Site, China",2024-05-03 09:27:00,https://storage.googleapis.com/nextspaceflight/media/rockets/Long_March_5.webp,Success,Active,,China,CHN,Success,2024
SpaceX,Falcon 9 Block 5 | Starlink Group 6-55,"SLC-40, Cape Canaveral SFS, Florida, USA",2024-05-03 02:37:00,https://storage.googleapis.com/nextspaceflight/media/rockets/Falcon_9_Block_5.webp,Success,Active,67.0,USA,USA,Success,2024
SpaceX,Falcon 9 Block 5 | WorldView Legion 1 & 2,"SLC-4E, Vandenberg SFB, California, USA",2024-05-02 18:36:00,https://storage.googleapis.com/nextspaceflight/media/rockets/Falcon_9_Block_5.webp,Success,Active,67.0,USA,USA,Success,2024
SpaceX,Falcon 9 Block 5 | Starlink Group 6-54,"SLC-40, Cape Canaveral SFS, Florida, USA",2024-04-28 22:08:00,https://storage.googleapis.com/nextspaceflight/media/rockets/Falcon_9_Block_5.webp,Success,Active,67.0,USA,USA,Success,2024
SpaceX,Falcon 9 Block 5 | Galileo FOC FM25 & FM27,"LC-39A, Kennedy Space Center, Florida, USA",2024-04-28 00:34:00,https://storage.googleapis.com/nextspaceflight/media/rockets/Falcon_9_Block_5.webp,Success,Active,67.0,USA,USA,Success,2024
CASC,Long March 2F/G | Shenzhou 18,"Site 901 (SLS-1), Jiuquan Satellite Launch Center, China",2024-04-25 12:59:00,https://storage.googleapis.com/nextspaceflight/media/rockets/CZ-2F-G.jpg,Success,Active,,China,CHN,Success,2024
Rocket Lab,Electron/Curie | Beginning Of The Swarm,"Rocket Lab LC-1B, Māhia Peninsula, New Zealand",2024-04-23 22:32:00,https://storage.googleapis.com/nextspaceflight/media/rockets/Electron_Curie.webp,Success,Active,7.5,New Zealand,NZL,Success,2024
SpaceX,Falcon 9 Block 5 | Starlink Group 6-53,"SLC-40, Cape Canaveral SFS, Florida, USA",2024-04-23 22:17:00,https://storage.googleapis.com/nextspaceflight/media/rockets/Falcon_9_Block_5.webp,Success,Active,67.0,USA,USA,Success,2024
CASC,Long March 2D | Yaogan 42-02,"LC-3, Xichang Satellite Launch Center, China",2024-04-20 23:45:00,https://storage.googleapis.com/nextspaceflight/media/rockets/Long-March-2D.jpeg,Success,Active,29.75,China,CHN,Success,2024
SpaceX,Falcon 9 Block 5 | Starlink Group 6-52,"SLC-40, Cape Canaveral SFS, Florida, USA",2024-04-18 22:40:00,https://storage.googleapis.com/nextspaceflight/media/rockets/Falcon_9_Block_5.webp,Success,Active,67.0,USA,USA,Success,2024
SpaceX,Falcon 9 Block 5 | Starlink Group 6-51,"LC-39A, Kennedy Space Center, Florida, USA",2024-04-17 21:26:00,https://storage.googleapis.com/nextspaceflight/media/rockets/Falcon_9_Block_5.webp,Success,Active,67.0,USA,USA,Success,2024
CASC,Long March 2D | SuperView Neo 3-01,"Site 9401 (SLS-2), Jiuquan Satellite Launch Center, China",2024-04-15 04:12:00,https://storage.googleapis.com/nextspaceflight/media/rockets/Long-March-2D.jpeg,Success,Active,29.75,China,CHN,Success,2024
SpaceX,Falcon 9 Block 5 | Starlink Group 6-49,"SLC-40, Cape Canaveral SFS, Florida, USA",2024-04-13 01:40:00,https://storage.googleapis.com/nextspaceflight/media/rockets/Falcon_9_Block_5.webp,Success,Active,67.0,USA,USA,Success,2024
SpaceX,Falcon 9 Block 5 | USSF-62/WSF-M 1,"SLC-4E, Vandenberg SFB, California, USA",2024-04-11 14:25:00,https://storage.googleapis.com/nextspaceflight/media/rockets/Falcon_9_Block_5.webp,Success,Active,67.0,USA,USA,Success,2024
Roscosmos,Angara A5/Blok DM-03 | Vostochny Angara Test Flight,"Site 1A, Vostochny Cosmodrome, Russia",2024-04-11 09:00:00,https://storage.googleapis.com/nextspaceflight/media/rockets/Angara_A5_DM-03.webp,Success,Active,100.0,Russian Federation,RUS,Success,2024
SpaceX,Falcon 9 Block 5 | Starlink Group 6-48,"SLC-40, Cape Canaveral SFS, Florida, USA",2024-04-10 05:40:00,https://storage.googleapis.com/nextspaceflight/media/rockets/Falcon_9_Block_5.webp,Success,Active,67.0,USA,USA,Success,2024
ULA,Delta IV Heavy | NROL-70,"SLC-37B, Cape Canaveral SFS, Florida, USA",2024-04-09 16:53:00,https://storage.googleapis.com/nextspaceflight/media/rockets/Delta_IV_Heavy.webp,Success,Retired,350.0,USA,USA,Success,2024
SpaceX,Falcon 9 Block 5 | Bandwagon-1,"LC-39A, Kennedy Space Center, Florida, USA",2024-04-07 23:16:00,https://storage.googleapis.com/nextspaceflight/media/rockets/Falcon_9_Block_5.webp,Success,Active,67.0,USA,USA,Success,2024
SpaceX,Falcon 9 Block 5 | Starlink Group 8-1,"SLC-4E, Vandenberg SFB, California, USA",2024-04-07 02:25:00,https://storage.googleapis.com/nextspaceflight/media/rockets/Falcon_9_Block_5.webp,Success,Active,67.0,USA,USA,Success,2024
SpaceX,Falcon 9 Block 5 | Starlink Group 6-47,"SLC-40, Cape Canaveral SFS, Florida, USA",2024-04-05 09:12:00,https://storage.googleapis.com/nextspaceflight/media/rockets/Falcon_9_Block_5.webp,Success,Active,67.0,USA,USA,Success,2024
CASC,Long March 2D | Yaogan 42-01,"LC-3, Xichang Satellite Launch Center, China",2024-04-02 22:56:00,https://storage.googleapis.com/nextspaceflight/media/rockets/Long-March-2D.jpeg,Success,Active,29.75,China,CHN,Success,2024
SpaceX,Falcon 9 Block 5 | Starlink Group 7-18,"SLC-4E, Vandenberg SFB, California, USA",2024-04-02 02:30:00,https://storage.googleapis.com/nextspaceflight/media/rockets/Falcon_9_Block_5.webp,Success,Active,67.0,USA,USA,Success,2024
Roscosmos,Soyuz 2.1b | Resurs-P No.4,"Site 31/6, Baikonur Cosmodrome, Kazakhstan",2024-03-31 09:36:00,https://storage.googleapis.com/nextspaceflight/media/rockets/Soyuz_2.1b_without_Fregat.jpg,Success,Active,20.0,Kazakhstan,KAZ,Success,2024
SpaceX,Falcon 9 Block 5 | Starlink Group 6-45,"SLC-40, Cape Canaveral SFS, Florida, USA",2024-03-31 01:30:00,https://storage.googleapis.com/nextspaceflight/media/rockets/Falcon_9_Block_5.webp,Success,Active,67.0,USA,USA,Success,2024
SpaceX,Falcon 9 Block 5 | Eutelsat 36D,"LC-39A, Kennedy Space Center, Florida, USA",2024-03-30 21:52:00,https://storage.googleapis.com/nextspaceflight/media/rockets/Falcon_9_Block_5.webp,Success,Active,67.0,USA,USA,Success,2024
CASC,Long March 6A | Yunhai 3-02,"LC-9A, Taiyuan Satellite Launch Center, China",2024-03-26 22:51:00,https://storage.googleapis.com/nextspaceflight/media/rockets/Long_March_6A.webp,Success,Active,,China,CHN,Success,2024
